
{
  "meta": {
    "version": "1.1"
  },
  "sessions": [
    {
      "protocol": [ "ipv4" ],
      "connect-time": 1527269900,
      "transactions": [
        {
          "start-time": 1527269900,
          "uuid": "12345",
          "client-request": {
            "version": "1.1",
            "scheme": "http",
            "method": "GET",
            "url": "/",
            "headers": {
              "fields": [
                [ "Host", "defiancealliance.corp.gq1.yahoo.com"],
                [ "User-Agent", "TS Replay"],
                [ "Accept", "*/*"]
              ]
            }
          },
          "proxy-request": {
            "version": "1.1",
            "scheme": "http",
            "method": "GET",
            "url": "/",
            "headers": {
              "fields": [
                [ "Host", "defiancealliance.corp.gq1.yahoo.com"],
                [ "User-Agent", "TS Replay"],
                [ "Accept", "*/*"]
              ]
            }
          },
          "server-response": {
            "status": 200,
            "reason": "OK",
            "content": {
              "size": 53
            },
            "headers": {
              "fields": [
                [ "Connection" , "keep-alive"],
                [ "Content-Type", "text/html; charset=utf-8"],
                [ "Content-Length", "53" ],
                [ "Last-Modified", "Fri, 06 Apr 2018 14:38:27 GMT"]
              ]
            }
          },
          "proxy-response": {
            "status": 200,
            "reason": "OK",
            "content": {
              "size": 53
            },
            "headers": {
              "fields": [
                [ "Connection" , "keep-alive"],
                [ "Content-Type", "text/html; charset=utf-8"],
                [ "Content-Length", "53" ],
                [ "Last-Modified", "Fri, 06 Apr 2018 14:38:27 GMT"]
              ]
            }
          }
        },
        {
          "start-time": 1527269901,
          "uuid": "54321",
          "client-request": {
            "version": "1.1",
            "scheme": "http",
            "method": "GET",
            "url": "/status.html",
            "headers": {
              "fields": [
                [ "Host", "defiancealliance.corp.gq1.yahoo.com"],
                [ "User-Agent", "TS Replay"],
                [ "Accept", "*/*"]
              ]
            }
          },
          "server-response": {
            "status": 200,
            "reason": "OK",
            "content": {
              "size": 46
            },
            "headers": {
              "fields": [
                [ "Connection" , "keep-alive"],
                [ "Content-Type", "text/html; charset=utf-8"],
                [ "Content-Length", "46" ],
                [ "Last-Modified", "Fri, 06 Apr 2018 14:38:27 GMT"],
                [ "ETag", "\"2e-56b4e411c046d\""]
              ]
            }
          }
        }
      ]
    },
    {
      "protocol": [ "ipv4" ],
      "connect-time": 1527270000,
      "transactions": [
        {
          "start-time": 1527270000,
          "uuid": "34251",
          "client-request": {
            "version": "1.1",
            "scheme": "http",
            "method": "GET",
            "url": "/",
            "headers": {
              "fields": [
                [ "Host", "httpbin.org"]
              ]
            }
          },
          "proxy-request": {
            "version": "1.1",
            "scheme": "http",
            "method": "GET",
            "url": "/",
            "headers": {
              "fields": [
                [ "Host", "httpbin.org"]
              ]
            }
          },
          "server-response": {
            "status": 200,
            "reason": "OK",
            "content": {
              "size": 8344
            },
            "headers": {
              "fields": [
                [ "Connection" , "keep-alive"],
                [ "Content-Type", "text/html; charset=utf-8"],
                [ "Content-Length", "8344" ]
              ]
            }
          },
          "proxy-response": {
            "status": 200,
            "reason": "OK",
            "content": {
              "size": 8344
            },
            "headers": {
              "fields": [
                [ "Connection" , "keep-alive"],
                [ "Content-Type", "text/html; charset=utf-8"],
                [ "Content-Length", "8344" ]
              ]
            }
          }
        }
      ]
    }
  ]
}
